{
  "prepare_queue": {
    "installed": [],
    "uninstalled": []
  },
  "config_munge": {
    "files": {}
  },
  "installed_plugins": {
    "cordova-plugin-battery-status": {
      "PACKAGE_NAME": "tech.tioft.dogYears"
    },
    "cordova-plugin-camera": {
      "PACKAGE_NAME": "tech.tioft.dogYears"
    },
    "cordova-plugin-media-capture": {
      "PACKAGE_NAME": "tech.tioft.dogYears"
    },
    "cordova-plugin-device": {
      "PACKAGE_NAME": "tech.tioft.dogYears"
    },
    "cordova-plugin-dialogs": {
      "PACKAGE_NAME": "tech.tioft.dogYears"
    },
    "cordova-plugin-geolocation": {
      "PACKAGE_NAME": "tech.tioft.dogYears"
    },
    "cordova-plugin-globalization": {
      "PACKAGE_NAME": "tech.tioft.dogYears"
    },
    "cordova-plugin-inappbrowser": {
      "PACKAGE_NAME": "tech.tioft.dogYears"
    },
    "cordova-plugin-network-information": {
      "PACKAGE_NAME": "tech.tioft.dogYears"
    },
    "cordova-plugin-vibration": {
      "PACKAGE_NAME": "tech.tioft.dogYears"
    },
    "phonegap-plugin-push": {
      "PACKAGE_NAME": "tech.tioft.dogYears"
    },
    "cordova-sms-plugin": {
      "PACKAGE_NAME": "tech.tioft.dogYears"
    }
  },
  "dependent_plugins": {
    "cordova-plugin-compat": {
      "PACKAGE_NAME": "tech.tioft.dogYears"
    },
    "cordova-plugin-file": {
      "PACKAGE_NAME": "tech.tioft.dogYears"
    }
  }
}