('/root/test/python/dist/sqrt_py',
 True,
 False,
 False,
 None,
 None,
 False,
 False,
 None,
 True,
 'sqrt_py.pkg',
 [('out00-PYZ.pyz', '/root/test/python/build/sqrt_py/out00-PYZ.pyz', 'PYZ'),
  ('struct', '/usr/lib/python3.6/struct.pyo', 'PYMODULE'),
  ('pyimod01_os_path',
   '/usr/local/lib/python3.6/dist-packages/PyInstaller/loader/pyimod01_os_path.pyc',
   'PYMODULE'),
  ('pyimod02_archive',
   '/usr/local/lib/python3.6/dist-packages/PyInstaller/loader/pyimod02_archive.pyc',
   'PYMODULE'),
  ('pyimod03_importers',
   '/usr/local/lib/python3.6/dist-packages/PyInstaller/loader/pyimod03_importers.pyc',
   'PYMODULE'),
  ('pyiboot01_bootstrap',
   '/usr/local/lib/python3.6/dist-packages/PyInstaller/loader/pyiboot01_bootstrap.py',
   'PYSOURCE'),
  ('sqrt_py', '/root/test/python/sqrt_py.py', 'PYSOURCE'),
  ('libexpat.so.1', '/lib/x86_64-linux-gnu/libexpat.so.1', 'BINARY'),
  ('libz.so.1', '/lib/x86_64-linux-gnu/libz.so.1', 'BINARY'),
  ('resource',
   '/usr/lib/python3.6/lib-dynload/resource.cpython-36m-x86_64-linux-gnu.so',
   'EXTENSION'),
  ('_ssl',
   '/usr/lib/python3.6/lib-dynload/_ssl.cpython-36m-x86_64-linux-gnu.so',
   'EXTENSION'),
  ('_codecs_hk',
   '/usr/lib/python3.6/lib-dynload/_codecs_hk.cpython-36m-x86_64-linux-gnu.so',
   'EXTENSION'),
  ('_codecs_tw',
   '/usr/lib/python3.6/lib-dynload/_codecs_tw.cpython-36m-x86_64-linux-gnu.so',
   'EXTENSION'),
  ('_codecs_cn',
   '/usr/lib/python3.6/lib-dynload/_codecs_cn.cpython-36m-x86_64-linux-gnu.so',
   'EXTENSION'),
  ('_codecs_kr',
   '/usr/lib/python3.6/lib-dynload/_codecs_kr.cpython-36m-x86_64-linux-gnu.so',
   'EXTENSION'),
  ('_codecs_jp',
   '/usr/lib/python3.6/lib-dynload/_codecs_jp.cpython-36m-x86_64-linux-gnu.so',
   'EXTENSION'),
  ('_codecs_iso2022',
   '/usr/lib/python3.6/lib-dynload/_codecs_iso2022.cpython-36m-x86_64-linux-gnu.so',
   'EXTENSION'),
  ('_multibytecodec',
   '/usr/lib/python3.6/lib-dynload/_multibytecodec.cpython-36m-x86_64-linux-gnu.so',
   'EXTENSION'),
  ('_opcode',
   '/usr/lib/python3.6/lib-dynload/_opcode.cpython-36m-x86_64-linux-gnu.so',
   'EXTENSION'),
  ('readline',
   '/usr/lib/python3.6/lib-dynload/readline.cpython-36m-x86_64-linux-gnu.so',
   'EXTENSION'),
  ('termios',
   '/usr/lib/python3.6/lib-dynload/termios.cpython-36m-x86_64-linux-gnu.so',
   'EXTENSION'),
  ('_hashlib',
   '/usr/lib/python3.6/lib-dynload/_hashlib.cpython-36m-x86_64-linux-gnu.so',
   'EXTENSION'),
  ('_bz2',
   '/usr/lib/python3.6/lib-dynload/_bz2.cpython-36m-x86_64-linux-gnu.so',
   'EXTENSION'),
  ('_lzma',
   '/usr/lib/python3.6/lib-dynload/_lzma.cpython-36m-x86_64-linux-gnu.so',
   'EXTENSION'),
  ('libssl.so.1.1', '/usr/lib/x86_64-linux-gnu/libssl.so.1.1', 'BINARY'),
  ('libcrypto.so.1.1', '/usr/lib/x86_64-linux-gnu/libcrypto.so.1.1', 'BINARY'),
  ('libreadline.so.7', '/lib/x86_64-linux-gnu/libreadline.so.7', 'BINARY'),
  ('libtinfo.so.5', '/lib/x86_64-linux-gnu/libtinfo.so.5', 'BINARY'),
  ('libbz2.so.1.0', '/lib/x86_64-linux-gnu/libbz2.so.1.0', 'BINARY'),
  ('liblzma.so.5', '/lib/x86_64-linux-gnu/liblzma.so.5', 'BINARY'),
  ('libpython3.6m.so.1.0',
   '/usr/lib/x86_64-linux-gnu/libpython3.6m.so.1.0',
   'BINARY'),
  ('base_library.zip',
   '/root/test/python/build/sqrt_py/base_library.zip',
   'DATA')],
 [],
 False,
 True,
 1534644849,
 [('run',
   '/usr/local/lib/python3.6/dist-packages/PyInstaller/bootloader/Linux-64bit/run',
   'EXECUTABLE')])
